{"success":true,"data":{"grouped":{"under50":[],"between50And150":[{"variants":[{"id":"470a30fd-366b-4da9-a5bb-c98a161533e0","color":"Default","size":null,"sku":"KINDLE-PW-DEF","price":139.99,"stock":44,"images":[],"createdAt":"2026-06-28T17:34:28.337Z"}],"images":[],"comments":[],"id":"6a41463b52deb9cfee038775","name":"Kindle Paperwhite","description":"6.8-inch display, adjustable warm light, waterproof.","categoryId":"6a40217b52deb9cfee038763","brand":"Amazon","price":139.99,"stock":44,"orderCount":1,"createdAt":"2026-06-28T16:05:15.317Z","updatedAt":"2026-06-28T17:34:28.338Z","category":{"name":"Electronics"}}],"over150":[{"variants":[],"images":[],"comments":[],"id":"6a41464152deb9cfee038779","name":"Sonos Era 300","description":"Premium smart speaker with Dolby Atmos.","categoryId":"6a40217b52deb9cfee038763","brand":"Sonos","price":449,"stock":22,"orderCount":0,"createdAt":"2026-06-28T16:05:21.146Z","updatedAt":"2026-06-28T16:05:21.146Z","category":{"name":"Electronics"}},{"variants":[],"images":[],"comments":[{"id":"2a81bcd6-88ca-4cf7-91f7-1e6174a05c92","content":"4","rating":5,"userId":"6a415d4852deb9cfee038783","reactions":[],"replies":[],"createdAt":"2026-06-28T17:51:55.308Z"},{"id":"0fd71760-317f-4b5b-af02-4eba96f59c81","content":"7","rating":5,"userId":"6a415d4852deb9cfee038783","reactions":[],"replies":[],"createdAt":"2026-06-28T17:52:34.506Z"}],"id":"6a41463f52deb9cfee038778","name":"DJI Mini 4 Pro","description":"Lightweight drone with omnidirectional obstacle sensing.","categoryId":"6a40217b52deb9cfee038763","brand":"DJI","price":759,"stock":11,"orderCount":0,"createdAt":"2026-06-28T16:05:19.699Z","updatedAt":"2026-06-28T17:52:34.507Z","category":{"name":"Electronics"}},{"variants":[],"images":[],"comments":[],"id":"6a41463e52deb9cfee038777","name":"Dyson V15 Detect","description":"Cordless vacuum cleaner with laser illumination.","categoryId":"6a40217b52deb9cfee038763","brand":"Dyson","price":749.99,"stock":7,"orderCount":0,"createdAt":"2026-06-28T16:05:18.252Z","updatedAt":"2026-06-28T16:05:18.252Z","category":{"name":"Electronics"}},{"variants":[],"images":[],"comments":[],"id":"6a41463c52deb9cfee038776","name":"Keychron Q1 Pro","description":"Wireless custom mechanical keyboard.","categoryId":"6a40217b52deb9cfee038763","brand":"Keychron","price":199,"stock":18,"orderCount":0,"createdAt":"2026-06-28T16:05:16.767Z","updatedAt":"2026-06-28T16:05:16.767Z","category":{"name":"Electronics"}}]},"all":[{"variants":[],"images":[],"comments":[],"id":"6a41464152deb9cfee038779","name":"Sonos Era 300","description":"Premium smart speaker with Dolby Atmos.","categoryId":"6a40217b52deb9cfee038763","brand":"Sonos","price":449,"stock":22,"orderCount":0,"createdAt":"2026-06-28T16:05:21.146Z","updatedAt":"2026-06-28T16:05:21.146Z","category":{"name":"Electronics"}},{"variants":[],"images":[],"comments":[{"id":"2a81bcd6-88ca-4cf7-91f7-1e6174a05c92","content":"4","rating":5,"userId":"6a415d4852deb9cfee038783","reactions":[],"replies":[],"createdAt":"2026-06-28T17:51:55.308Z"},{"id":"0fd71760-317f-4b5b-af02-4eba96f59c81","content":"7","rating":5,"userId":"6a415d4852deb9cfee038783","reactions":[],"replies":[],"createdAt":"2026-06-28T17:52:34.506Z"}],"id":"6a41463f52deb9cfee038778","name":"DJI Mini 4 Pro","description":"Lightweight drone with omnidirectional obstacle sensing.","categoryId":"6a40217b52deb9cfee038763","brand":"DJI","price":759,"stock":11,"orderCount":0,"createdAt":"2026-06-28T16:05:19.699Z","updatedAt":"2026-06-28T17:52:34.507Z","category":{"name":"Electronics"}},{"variants":[],"images":[],"comments":[],"id":"6a41463e52deb9cfee038777","name":"Dyson V15 Detect","description":"Cordless vacuum cleaner with laser illumination.","categoryId":"6a40217b52deb9cfee038763","brand":"Dyson","price":749.99,"stock":7,"orderCount":0,"createdAt":"2026-06-28T16:05:18.252Z","updatedAt":"2026-06-28T16:05:18.252Z","category":{"name":"Electronics"}},{"variants":[],"images":[],"comments":[],"id":"6a41463c52deb9cfee038776","name":"Keychron Q1 Pro","description":"Wireless custom mechanical keyboard.","categoryId":"6a40217b52deb9cfee038763","brand":"Keychron","price":199,"stock":18,"orderCount":0,"createdAt":"2026-06-28T16:05:16.767Z","updatedAt":"2026-06-28T16:05:16.767Z","category":{"name":"Electronics"}},{"variants":[{"id":"470a30fd-366b-4da9-a5bb-c98a161533e0","color":"Default","size":null,"sku":"KINDLE-PW-DEF","price":139.99,"stock":44,"images":[],"createdAt":"2026-06-28T17:34:28.337Z"}],"images":[],"comments":[],"id":"6a41463b52deb9cfee038775","name":"Kindle Paperwhite","description":"6.8-inch display, adjustable warm light, waterproof.","categoryId":"6a40217b52deb9cfee038763","brand":"Amazon","price":139.99,"stock":44,"orderCount":1,"createdAt":"2026-06-28T16:05:15.317Z","updatedAt":"2026-06-28T17:34:28.338Z","category":{"name":"Electronics"}}]},"pagination":{"page":1,"limit":5,"total":20,"pages":4}}